{"page":1,"total_results":119,"total_pages":6,"results":[{"vote_count":8855,"id":1771,"video":false,"vote_average":6.7,"title":"Captain America: The First Avenger","popularity":40.148053,"poster_path":"\/vSNxAJTlD0r02V9sPYpOjqDZXUK.jpg","original_language":"en","original_title":"Captain America: The First Avenger","genre_ids":[28,12,878],"backdrop_path":"\/pmZtj1FKvQqISS6iQbkiLg5TAsr.jpg","adult":false,"overview":"Predominantly set during World War II, Steve Rogers is a sickly man from Brooklyn who's transformed into super-soldier Captain America to aid in the war effort. Rogers must stop the Red Skull – Adolf Hitler's ruthless head of weaponry, and the leader of an organization that intends to use a mysterious device of untold powers for world domination.","release_date":"2011-07-22"},{"vote_count":6,"id":47369,"video":false,"vote_average":4.8,"title":"Avenger","popularity":2.177166,"poster_path":"\/gub3U5fxRDFyiw8mxpErfcq03li.jpg","original_language":"en","original_title":"Avenger","genre_ids":[10770,28,53],"backdrop_path":"\/d3qo3GJxvhZPRR8N22wDPKPxTGF.jpg","adult":false,"overview":"After his own daughter was killed in Panama in 1994, former CIA agent Calvin Dexter became a private 'specialist' in cases which wouldn't reach justice trough the regular legal channels. Two years later he accepts to find Richard 'Ricky' Edmunds for his pa, influential rich businessman Stephen Edmonds. Ricky for a private Canadian war victims charity in Bosnia and went missing. Dexter discovers Ricky was beaten to pulp and drowned for no other crime then helping street boys from the other side by Zoran Zilic and his Serbian paramilitary 'order'. He offers Steven to 'finish the job' as such war criminals don't go to trial. But deputy CIA director Paul Devereaux cares only for a nuclear arms project he wants to use Zilic for. So CIA troubleshooter Frank McBride is ordered to protect him and handle Dexter.","release_date":"2006-04-09"},{"vote_count":151,"id":15239,"video":false,"vote_average":6.4,"title":"The Toxic Avenger","popularity":8.952603,"poster_path":"\/z9RHyAvshVHgJE5Qe7Iu3EmxFgU.jpg","original_language":"en","original_title":"The Toxic Avenger","genre_ids":[878,28,35,27],"backdrop_path":"\/7qAk9JKiAfFKVVvHdEzBSICKxFD.jpg","adult":false,"overview":"Tromaville has a monstrous new hero. The Toxic Avenger is born when mop boy Melvin Junko falls into a vat of toxic waste. Now evildoers will have a lot to lose.","release_date":"1984-05-01"},{"vote_count":2,"id":271833,"video":false,"vote_average":6.5,"title":"Invisible Avenger","popularity":2.204083,"poster_path":"\/iQ8gwPRF479YrgtK8YzEoTxEtpE.jpg","original_language":"ja","original_title":"透明人間","genre_ids":[878,53,9648],"backdrop_path":"\/9F8YZ1GKWntcwTr7cWX72cjePSl.jpg","adult":false,"overview":"A car strikes an unseen object; blood spreads from an invisible source which becomes visible as the bleeding man dies. He carries with him a suicide note dedicated to his only friend, who is also an invisible man. An eager young reporter tracks down Takemitsu Nanjo, a war veteran who makes his living visibly, painting his face like a clown's and carrying advertising signs. His favorite neighbor is a little blind girl whose mother is running afoul of local gangsters. The gangsters have been terrorizing the city as \"the invisible gang,\" wrapping themselves up in scarves and trenchcoats so as to be visible to their victims, even though they are supposed to be invisible underneath. Once they discover Nanjo, who is defending his only friends, they beat him and leave him for dead.","release_date":"1954-12-29"},{"vote_count":0,"id":146041,"video":false,"vote_average":0,"title":"Naked Avenger","popularity":2.207434,"poster_path":"\/g1LrmD9nxBswMaEsftYNJaGNAw6.jpg","original_language":"en","original_title":"Naked Avenger","genre_ids":[],"backdrop_path":"\/7mIgPtLT9W77nwW2gUykwG3mHME.jpg","adult":false,"overview":"This movie follows a young girl, whose boyfriend has left her stranded on the side of the road without a car. Seeking only to get to her job, to pay her bills, she is picked up by a scout for the seedy underworld of white slavery and prostitution. With this, the action begins...","release_date":"2008-02-11"},{"vote_count":47,"id":28165,"video":false,"vote_average":5.2,"title":"The Toxic Avenger Part II","popularity":4.997716,"poster_path":"\/42EWRhEjwTpPwqDcL7UemewBlLw.jpg","original_language":"en","original_title":"The Toxic Avenger Part II","genre_ids":[35,27,28],"backdrop_path":"\/yyKXfBqIRiobVsD1wc9VQcx1Kql.jpg","adult":false,"overview":"The Toxic Avenger is lured to Tokyo, Japan by the evil corporation Apocalypse Inc. So while the Toxic Avenger is fighting crime in Tokyo, Apocalypse Inc. spread evil in Tromaville.","release_date":"1989-02-24"},{"vote_count":39,"id":27601,"video":false,"vote_average":6.4,"title":"Citizen Toxie: The Toxic Avenger IV","popularity":6.432393,"poster_path":"\/wR4VvqrRd2r9M4GYXPnoV02aUNG.jpg","original_language":"en","original_title":"Citizen Toxie: The Toxic Avenger IV","genre_ids":[35,27],"backdrop_path":"\/r6cwSfNPL8Q8bBY5PNNDbVmDzU7.jpg","adult":false,"overview":"When the notorious Diaper Mafia take hostage the Tromaville School for the Very Special, only the Toxic Avenger and his morbidly obese sidekick Lardass can save Tromaville.","release_date":"2001-11-01"},{"vote_count":0,"id":272444,"video":false,"vote_average":0,"title":"Manchurian Avenger","popularity":1.415178,"poster_path":"\/hgDNR3sa06pwrsGZqg84xRGqW63.jpg","original_language":"en","original_title":"Manchurian Avenger","genre_ids":[],"backdrop_path":null,"adult":false,"overview":"Joe returns to Colorado after many years to help the man who brought him up, Kim. Joes father was killed by a gang looking to find some gold they believe he had found. Joe finds that Kim has also been murdered by them and tries to help his sister and her man to beat the gang and perhaps find the gold.","release_date":"1985-04-10"},{"vote_count":0,"id":29897,"video":false,"vote_average":0,"title":"Lady Avenger","popularity":1.134312,"poster_path":"\/nR5BwXbGI0Mjxb4LbYvUmMQf8G6.jpg","original_language":"en","original_title":"Lady Avenger","genre_ids":[28],"backdrop_path":null,"adult":false,"overview":"No overview found.","release_date":"1988-07-01"},{"vote_count":2,"id":111425,"video":false,"vote_average":5.3,"title":"The Avenger","popularity":1.114083,"poster_path":"\/tTPm5pJQEbJYtVmxJ92AclrOWU8.jpg","original_language":"de","original_title":"Edgar Wallace: Der Rächer","genre_ids":[80],"backdrop_path":"\/oaK09qDxHi2FS3ncnWjdEWWtTyj.jpg","adult":false,"overview":"A maniac is loose in London, decapitating his victims and sending the heads to Scotland Yard.","release_date":"1960-08-05"},{"vote_count":2,"id":115043,"video":false,"vote_average":5.3,"title":"Woman Avenger","popularity":1.113505,"poster_path":"\/iJULhRttCCbMw6wbD7fHgEl85mf.jpg","original_language":"en","original_title":"Shi mei chu ma","genre_ids":[28],"backdrop_path":null,"adult":false,"overview":"A deadly martial artist seeks vengeance on the killers of her husband.","release_date":"1980-09-11"},{"vote_count":0,"id":517289,"video":false,"vote_average":0,"title":"The Toxic Avenger: The Musical","popularity":2.111657,"poster_path":"\/orkWyM0GHSN1wfShZGS79ARXnPk.jpg","original_language":"en","original_title":"The Toxic Avenger: The Musical","genre_ids":[10402,35,878],"backdrop_path":null,"adult":false,"overview":"Based on Lloyd Kaufman’s cult 1984 comedy film, The Toxic Avenger The Musical tells the story of the citizens of Tromaville who are crying out for a hero. Enter nerdy Melvin Ferd the Third, an aspiring earth scientist, determined to clean up the state’s major toxic waste problem. When a corrupt Mayor and her government goons get wind of his plans, they vow to stop this heroic feat. Melvin is attacked and tossed into a vat of toxic waste... transforming him instantly into The Toxic Avenger, New Jersey’s first superhero! Toxie is a 7-foot mutant freak with superhuman strength and a supersized heart to match. His aims are to save heavily polluted New Jersey, end global warming, win the heart of the prettiest (blindest) librarian in town - and get home in time for dinner!","release_date":"2018-04-07"},{"vote_count":1,"id":75796,"video":false,"vote_average":0,"title":"The Dark Avenger","popularity":1.612398,"poster_path":"\/kzUHxNjDAlJaBwkj1wEUoePPuyU.jpg","original_language":"en","original_title":"The Dark Avenger","genre_ids":[12,28],"backdrop_path":"\/AouLSja77F9ZxaffBkCNRu3KMIj.jpg","adult":false,"overview":"Edward, Prince of Wales, son and heir to his father King Edward III of England, leads an English army to the French province of Aquitaine to protect the inhabitant from the ravages of the French. After defeating the French in battle, the defeated French plot to kill the prince. Failing in this, they kidnap his lady, the lovely Lady Joan Holland. Of course Prince Edward has to ride to the rescue, adopting numerous guises to save his paramour, which ultimately end in him leading his men into one final climactic battle against the French. (Also known as \"The Warriors\" and \"The Black Prince\").","release_date":"1955-09-11"},{"vote_count":1,"id":106902,"video":false,"vote_average":4,"title":"Avenger X","popularity":1.071669,"poster_path":"\/gv1kyWTSq5Y4ySKJi7XT2dMeDOk.jpg","original_language":"en","original_title":"Avenger X","genre_ids":[],"backdrop_path":null,"adult":false,"overview":"Police find a woman murdered with an X carved in her forehead and naturally assume it was the work of the retired master criminal, Mr. X! The real Mr. X, the man of a million, trillion disguises knows he's innocent of this dirty deed and soon dons his costume again in order to clear his name.","release_date":"1967-05-17"},{"vote_count":1,"id":353116,"video":true,"vote_average":10,"title":"Avenger Returns","popularity":1.069178,"poster_path":null,"original_language":"en","original_title":"Avenger Returns","genre_ids":[],"backdrop_path":null,"adult":false,"overview":"Action movie","release_date":""},{"vote_count":34,"id":28169,"video":false,"vote_average":4.8,"title":"The Toxic Avenger Part III: The Last Temptation of Toxie","popularity":4.349254,"poster_path":"\/qoXXzqHkMStO4Ws8nmE7xM73NMf.jpg","original_language":"en","original_title":"The Toxic Avenger Part III: The Last Temptation of Toxie","genre_ids":[35,27,28,878],"backdrop_path":"\/sqKF8h44aJkWHiF7sYKbOWZ2qbC.jpg","adult":false,"overview":"Toxie finds he has nothing to do as a superhero, as he has ridden his city of evil. So he decides to go to work for a major corporation, which he discovers may be the evilest of all his adversaries.","release_date":"1989-11-24"},{"vote_count":0,"id":332884,"video":false,"vote_average":0,"title":"The Avenger","popularity":1.012438,"poster_path":"\/kNZ15pwbmqtwitUN8NcDCD4PEXv.jpg","original_language":"en","original_title":"Al-muntaqim","genre_ids":[],"backdrop_path":null,"adult":false,"overview":"Directed by Salah Abouseif.","release_date":"1947-01-02"},{"vote_count":0,"id":435758,"video":false,"vote_average":0,"title":"An Avenger","popularity":1.001202,"poster_path":"\/61pySYmxxDwELZoI58hW1hfABfc.jpg","original_language":"hr","original_title":"Osvetnik","genre_ids":[16],"backdrop_path":null,"adult":false,"overview":"An animated adaptation of a short story by Anton Chekhov (\"Мститель\").","release_date":"1958-01-01"},{"vote_count":0,"id":483127,"video":false,"vote_average":0,"title":"Desperate Avenger","popularity":1.000146,"poster_path":"\/h5q8pF0bAbflzD6xfSe7n3rqepm.jpg","original_language":"zh","original_title":"亡命煞星","genre_ids":[28],"backdrop_path":null,"adult":false,"overview":"The story begins with a feud between two families in the early days of the Republic of China. One family side’s with the Japanese and the other is totally wiped out. Enter our hero who resolves to wreak revenge on the murderous traitors — its furious kung fu fighting all the way!","release_date":"1973-11-09"},{"vote_count":0,"id":305597,"video":false,"vote_average":0,"title":"The Avenger","popularity":1.001339,"poster_path":"\/yWPeUT96VUlm47fKqbYlIBd6Vur.jpg","original_language":"en","original_title":"The Avenger","genre_ids":[10749,37],"backdrop_path":"\/7GpQxVbgmCFyvu8Szw6apxvgJMG.jpg","adult":false,"overview":"Goss, Mason, and Kelly force Joaquin Murieta to watch as they hang his brother Juan for a crime he did not commit. To exact his revenge on the three, Joaquin becomes the notorious Black Shadow.","release_date":"1931-03-06"}]}