{"results":[{"vote_count":331,"id":299536,"video":false,"vote_average":8.7,"title":"Avengers: Infinity War","popularity":222.346945,"poster_path":"\/7WsyChQLEftFiDOVTGkv3hFpyyt.jpg","original_language":"en","original_title":"Avengers: Infinity War","genre_ids":[12,878,14,28],"backdrop_path":"\/kbGO5mHPK7rh516MgAIJUQ9RvqD.jpg","adult":false,"overview":"As the Avengers and their allies have continued to protect the world from threats too large for any one hero to handle, a new danger has emerged from the cosmic shadows: Thanos. A despot of intergalactic infamy, his goal is to collect all six Infinity Stones, artifacts of unimaginable power, and use them to inflict his twisted will on all of reality. Everything the Avengers have fought for has led up to this moment - the fate of Earth and existence itself has never been more uncertain.","release_date":"2018-04-25"},{"vote_count":277,"id":427641,"video":false,"vote_average":5.9,"title":"Rampage","popularity":170.690934,"poster_path":"\/30oXQKwibh0uANGMs0Sytw3uN22.jpg","original_language":"en","original_title":"Rampage","genre_ids":[28,12,878],"backdrop_path":"\/wrqUiMXttHE4UBFMhLHlN601MZh.jpg","adult":false,"overview":"Primatologist Davis Okoye shares an unshakable bond with George, the extraordinarily intelligent, silverback gorilla who has been in his care since birth.  But a rogue genetic experiment gone awry mutates this gentle ape into a raging creature of enormous size.  To make matters worse, it’s soon discovered there are other similarly altered animals.  As these newly created alpha predators tear across North America, destroying everything in their path, Okoye teams with a discredited genetic engineer to secure an antidote, fighting his way through an ever-changing battlefield, not only to halt a global catastrophe but to save the fearsome creature that was once his friend.","release_date":"2018-04-12"},{"vote_count":725,"id":447332,"video":false,"vote_average":7.4,"title":"A Quiet Place","popularity":110.996309,"poster_path":"\/nAU74GmpUk7t5iklEp3bufwDq4n.jpg","original_language":"en","original_title":"A Quiet Place","genre_ids":[18,27,53,878],"backdrop_path":"\/roYyPiQDQKmIKUEhO912693tSja.jpg","adult":false,"overview":"A family is forced to live in silence while hiding from creatures that hunt by sound.","release_date":"2018-04-05"},{"vote_count":139,"id":381719,"video":false,"vote_average":6.4,"title":"Peter Rabbit","popularity":52.946786,"poster_path":"\/2yjSvEDuM3rLDng40erLsWkQRfn.jpg","original_language":"en","original_title":"Peter Rabbit","genre_ids":[16,12,10751],"backdrop_path":"\/e9dVo1OXZL6sWinc9uIS0Foo4QG.jpg","adult":false,"overview":"Peter Rabbit's feud with Mr. McGregor escalates to greater heights than ever before as they rival for the affections of the warm-hearted animal lover who lives next door.","release_date":"2018-02-07"},{"vote_count":416,"id":429351,"video":false,"vote_average":4.8,"title":"12 Strong","popularity":45.731637,"poster_path":"\/j18021qCeRi3yUBtqd2UFj1c0RQ.jpg","original_language":"en","original_title":"12 Strong","genre_ids":[10752,18,36],"backdrop_path":"\/wacEk5YSNE41QeKseilyytksXmv.jpg","adult":false,"overview":"A team of CIA agents and special forces head into Afghanistan in the aftermath of the September 11th attacks in an attempt to dismantle the Taliban.","release_date":"2018-01-18"},{"vote_count":26,"id":460019,"video":false,"vote_average":5.9,"title":"Truth or Dare","popularity":29.136613,"poster_path":"\/kdkNaQYZ7dhM80LsnAGKpH8ca2g.jpg","original_language":"en","original_title":"Truth or Dare","genre_ids":[53,27],"backdrop_path":"\/eQ5xu2pQ5Kergubto5PbbUzey28.jpg","adult":false,"overview":"A harmless game of “Truth or Dare” among friends turns deadly when someone—or something—begins to punish those who tell a lie—or refuse the dare.","release_date":"2018-04-12"},{"vote_count":1,"id":383498,"video":false,"vote_average":0,"title":"Deadpool 2","popularity":23.908887,"poster_path":"\/zWoFYfjEArXKjTJX6akSveGYSs3.jpg","original_language":"en","original_title":"Deadpool 2","genre_ids":[28,35,878],"backdrop_path":"\/3P52oz9HPQWxcwHOwxtyrVV1LKi.jpg","adult":false,"overview":"Wisecracking mercenary Deadpool battles the evil and powerful Cable and other bad guys to save a boy's life.","release_date":"2018-05-15"},{"vote_count":189,"id":399174,"video":false,"vote_average":7.7,"title":"Isle of Dogs","popularity":22.719827,"poster_path":"\/c0nUX6Q1ZB0P2t1Jo6EeFSVnOGQ.jpg","original_language":"en","original_title":"Isle of Dogs","genre_ids":[12,35,16],"backdrop_path":"\/5YtXsLG9ncjjFyGZjoeV31CGf01.jpg","adult":false,"overview":"In the future, an outbreak of canine flu leads the mayor of a Japanese city to banish all dogs to an island that's a garbage dump. The outcasts must soon embark on an epic journey when a 12-year-old boy arrives on the island to find his beloved pet.","release_date":"2018-03-23"},{"vote_count":260,"id":445571,"video":false,"vote_average":7.3,"title":"Game Night","popularity":21.173376,"poster_path":"\/1wS89vns6cseCn4UHSqj97xKEKW.jpg","original_language":"en","original_title":"Game Night","genre_ids":[9648,35,80,53],"backdrop_path":"\/jknYekTVH1n7doNVj5wiCMKhx7u.jpg","adult":false,"overview":"Max and Annie's weekly game night gets kicked up a notch when Max's brother Brooks arranges a murder mystery party -- complete with fake thugs and federal agents. So when Brooks gets kidnapped, it's all supposed to be part of the game. As the competitors set out to solve the case, they start to learn that neither the game nor Brooks are what they seem to be. The friends soon find themselves in over their heads as each twist leads to another unexpected turn over the course of one chaotic night.","release_date":"2018-02-22"},{"vote_count":125,"id":442064,"video":false,"vote_average":5.3,"title":"Proud Mary","popularity":19.339948,"poster_path":"\/5luceoVMU2FzWuyty7mZFcSY5ZW.jpg","original_language":"en","original_title":"Proud Mary","genre_ids":[53,28,80],"backdrop_path":"\/txKjPn6yuqvmdc7YGTnh62EM5Cd.jpg","adult":false,"overview":"A hit woman kills a drug boss only to learn that she has left a boy orphaned. A year later, she saves the boy from a dangerous life on the street but finds herself unable to give the boy or herself a fresh start.","release_date":"2018-01-12"},{"vote_count":68,"id":437557,"video":false,"vote_average":6.4,"title":"Blockers","popularity":18.038477,"poster_path":"\/cx0LpfM6Drla8uzFfMT09uqKPRu.jpg","original_language":"en","original_title":"Blockers","genre_ids":[35],"backdrop_path":"\/bStCGzVYFrKxtOyThKkqgI8gjgE.jpg","adult":false,"overview":"When three parents discover their daughters’ pact to lose their virginity at prom, they launch a covert one-night operation to stop the teens from sealing the deal.","release_date":"2018-03-30"},{"vote_count":779,"id":399170,"video":false,"vote_average":6.6,"title":"Logan Lucky","popularity":18.027136,"poster_path":"\/p1RDYsRvrm6v5gSKkVm0KOotUcE.jpg","original_language":"en","original_title":"Logan Lucky","genre_ids":[28,35,80],"backdrop_path":"\/vzu7tNNF5jT6u2AScPwi6qF7T75.jpg","adult":false,"overview":"Trying to reverse a family curse, brothers Jimmy and Clyde Logan set out to execute an elaborate robbery during the legendary Coca-Cola 600 race at the Charlotte Motor Speedway.","release_date":"2017-08-17"},{"vote_count":4,"id":332283,"video":false,"vote_average":0,"title":"Mary Shelley","popularity":17.573392,"poster_path":"\/8PSdzxTQt3YQnCZ9XnoC85CCQq6.jpg","original_language":"en","original_title":"Mary Shelley","genre_ids":[18,10749],"backdrop_path":"\/3vp5dMXAzbl5JUoGgVXEBZMJn7i.jpg","adult":false,"overview":"The love affair between poet Percy Shelley and 18 years old Mary Wollstonecraft, which resulted in Mary Shelley writing Frankenstein.","release_date":"2018-04-25"},{"vote_count":9,"id":400579,"video":false,"vote_average":3.3,"title":"Tully","popularity":15.135512,"poster_path":"\/zWoIgYCAJlXMWp7VxNLK0AVYvSR.jpg","original_language":"en","original_title":"Tully","genre_ids":[35],"backdrop_path":"\/h4Z6IUpTyD9ViV7NLmbAEbgM1G0.jpg","adult":false,"overview":"Marlo, a mother of three including a newborn, is gifted a night nanny by her brother. Hesitant to the extravagance at first, Marlo comes to form a bond with the thoughtful, surprising, and sometimes challenging nanny named Tully.","release_date":"2018-04-20"},{"vote_count":111,"id":470114,"video":false,"vote_average":5.4,"title":"24 Hours to Live","popularity":14.778789,"poster_path":"\/w0MXP33x1bq48TDC7IaNqQ8nxcc.jpg","original_language":"en","original_title":"24 Hours to Live","genre_ids":[28,878,53],"backdrop_path":"\/jGjFwizX2YYoUOJkCymlfvS8aGp.jpg","adult":false,"overview":"An assassin seeks redemption after being given a second chance at life.","release_date":"2017-10-26"},{"vote_count":21,"id":370567,"video":false,"vote_average":5.2,"title":"Sherlock Gnomes","popularity":14.457997,"poster_path":"\/xHdf2wRgCSp9MrZRryikiZIH6jB.jpg","original_language":"en","original_title":"Sherlock Gnomes","genre_ids":[10749,16,35,10751,14,9648],"backdrop_path":"\/dmbD8FDr6DDdinGEs14HC2FmY2w.jpg","adult":false,"overview":"Garden gnomes, Gnomeo & Juliet, recruit renown detective, Sherlock Gnomes, to investigate the mysterious disappearance of other garden ornaments.","release_date":"2018-03-15"},{"vote_count":206,"id":411741,"video":false,"vote_average":6.7,"title":"Ingrid Goes West","popularity":14.388765,"poster_path":"\/3LEyW11onDltXHo0L1X23j9Nnvg.jpg","original_language":"en","original_title":"Ingrid Goes West","genre_ids":[18,35],"backdrop_path":"\/enwPgakYeduofhVxvS2KGR0nIpm.jpg","adult":false,"overview":"Ingrid becomes obsessed with a social network star named Taylor Sloane who seemingly has a perfect life. But when Ingrid decides to drop everything and move west to be Taylor's friend, her behaviour turns unsettling and dangerous.","release_date":"2017-08-11"},{"vote_count":184,"id":395990,"video":false,"vote_average":4.8,"title":"Death Wish","popularity":13.765773,"poster_path":"\/wamM5AyPAeNPNPfjWRI9WD8dweQ.jpg","original_language":"en","original_title":"Death Wish","genre_ids":[28,80,18,53],"backdrop_path":"\/uQqQvmptJLPTcWDrZXn22p7j7s3.jpg","adult":false,"overview":"A mild-mannered father is transformed into a killing machine after his family is torn apart by a violent act.","release_date":"2018-03-02"},{"vote_count":233,"id":402897,"video":false,"vote_average":7.2,"title":"The Death of Stalin","popularity":12.462705,"poster_path":"\/xAKqG5SpsHU7vI6Fh4UYxFrDDZZ.jpg","original_language":"en","original_title":"The Death of Stalin","genre_ids":[35,36],"backdrop_path":"\/tx5TFMF85qU2Ug4TRIGQZbDpzFA.jpg","adult":false,"overview":"Stalin's core team of ministers tussle for control following the Russian leader's stroke in 1953.","release_date":"2017-10-20"},{"vote_count":2,"id":454619,"video":false,"vote_average":0,"title":"Overboard","popularity":12.401533,"poster_path":"\/1Dl0EwihD1KR2embkJB1rPIT9C2.jpg","original_language":"en","original_title":"Overboard","genre_ids":[10749,35],"backdrop_path":"\/yCfXPtYz1CtPw4bbjAZ8xwXenNS.jpg","adult":false,"overview":"A spoiled, wealthy yacht owner is thrown overboard and becomes the target of revenge from his mistreated employee. A remake of the 1987 comedy.","release_date":"2018-05-03"}],"page":1,"total_results":236,"dates":{"maximum":"2018-05-20","minimum":"2018-05-02"},"total_pages":12}